<?xml version="1.0" encoding="utf-8"?>
<!-- Generator: Adobe Illustrator 22.0.1, SVG Export Plug-In . SVG Version: 6.00 Build 0)  -->
<svg version="1.1" id="Layer_1" xmlns="http://www.w3.org/2000/svg" xmlns:xlink="http://www.w3.org/1999/xlink" x="0px" y="0px"
	 viewBox="0 0 200 200" style="enable-background:new 0 0 200 200;" xml:space="preserve">
<style type="text/css">
	.st0{fill:url(#SVGID_1_);}
	.st1{fill:url(#SVGID_2_);}
	.st2{fill:url(#SVGID_3_);}
	.st3{fill:url(#SVGID_4_);}
	.st4{fill:url(#SVGID_5_);}
	.st5{fill:url(#SVGID_6_);}
</style>
<linearGradient id="SVGID_1_" gradientUnits="userSpaceOnUse" x1="61.2995" y1="134.7029" x2="176.825" y2="134.7029" gradientTransform="matrix(1 0 0 -1 0 200)">
	<stop  offset="0" style="stop-color:#3247D5"/>
	<stop  offset="1" style="stop-color:#5742E3"/>
</linearGradient>
<path class="st0" d="M135.6,44.9l-12.2,12.2c-15.7-13.6-39.5-11.8-53,3.9s-11.8,39.5,3.9,53s39.5,11.8,53-3.9
	c12.2-14.1,12.2-35.1-0.1-49.2l12.2-12.2l13.4,3.3c0.9,0.2,1.9,0,2.6-0.7L176,30.9c1.1-1.1,1.1-2.8,0-3.9c-0.4-0.4-1-0.7-1.7-0.8
	l-14.7-1.5L158.1,10c-0.1-1.5-1.5-2.6-3-2.5c-0.6,0.1-1.2,0.3-1.7,0.8L133,28.9c-0.7,0.7-1,1.7-0.7,2.6L135.6,44.9z M131.8,85.6
	c0,18.2-14.7,33-32.9,33s-33-14.7-33-32.9s14.7-33,32.9-33c7.8,0,15.3,2.7,21.3,7.8L108,72.6c-7.2-5-17.1-3.3-22.2,3.9
	c-5,7.2-3.3,17.1,3.9,22.2c7.2,5,17.1,3.3,22.2-3.9c3.8-5.5,3.8-12.8,0-18.3L124,64.4C129,70.3,131.8,77.8,131.8,85.6L131.8,85.6z
	 M110.1,85.6c0,6.2-5,11.2-11.2,11.2s-11.2-5-11.2-11.2s5-11.2,11.2-11.2c2,0,4,0.5,5.7,1.6l-7.7,7.7c-1.1,1.1-1.1,2.8,0,3.9
	s2.8,1.1,3.9,0l0,0l7.7-7.7C109.5,81.6,110.1,83.6,110.1,85.6L110.1,85.6z M152.7,46.4l-8.7-2.2l14.1-14.1l9.9,1L152.7,46.4z
	 M153.3,16.4l1,9.9l-14.1,14.1l-2.2-8.7L153.3,16.4z"/>
<linearGradient id="SVGID_2_" gradientUnits="userSpaceOnUse" x1="45.8" y1="85.85" x2="151.9535" y2="85.85" gradientTransform="matrix(1 0 0 -1 0 200)">
	<stop  offset="0" style="stop-color:#3247D5"/>
	<stop  offset="1" style="stop-color:#5742E3"/>
</linearGradient>
<path class="st1" d="M63.1,125.1c6.9,6.4,10.7,15.3,10.7,24.7v25.3c0,5.6,4.5,10.1,10.2,10.2h12.7v7.8c0,1.3,1.1,2.3,2.4,2.3
	s2.3-1.1,2.3-2.3v-7.8H114c5.6,0,10.1-4.5,10.2-10.2v-25.4c0.1-9.5,4.1-18.5,11-24.9c11.1-10.4,17.3-25,16.9-40.2
	c-0.3-11.3-4.2-22.2-11.2-31.1c-0.8-1-2.3-1.2-3.3-0.4s-1.2,2.3-0.4,3.3l0,0c6.4,8.1,9.9,18.1,10.2,28.4
	c0.4,13.9-5.2,27.2-15.4,36.7c-7.3,6.8-11.7,16.1-12.4,26H78.4c-0.6-9.8-4.9-19.1-12.2-25.8c-19.7-18.1-21-48.7-2.9-68.4
	c9.2-10,22.1-15.7,35.6-15.7c0.2,0,0.3,0,0.5,0c10.3,0.1,20.3,3.5,28.5,9.7c1,0.8,2.5,0.6,3.3-0.5c0.8-1,0.6-2.5-0.5-3.3
	c-9-6.8-20-10.5-31.3-10.6c-0.2,0-0.3,0-0.5,0c-29.3,0-53.1,23.8-53.1,53.1C45.9,100.9,52.1,115.1,63.1,125.1L63.1,125.1z
	 M114,180.6H84c-3,0-5.5-2.4-5.5-5.5v-1h26.9c1.3,0,2.3-1.1,2.3-2.3c0-1.3-1.1-2.3-2.3-2.3H78.5V163h6.6c1.3,0,2.3-1.1,2.3-2.3
	c0-1.3-1.1-2.3-2.3-2.3h-6.6v-6.1h41v6.1H93.2c-1.3,0-2.3,1.1-2.3,2.3c0,1.3,1.1,2.3,2.3,2.3h26.3v6.5h-6c-1.3,0-2.3,1.1-2.3,2.3
	c0,1.3,1.1,2.3,2.3,2.3h6v1C119.5,178.1,117,180.6,114,180.6z"/>
<linearGradient id="SVGID_3_" gradientUnits="userSpaceOnUse" x1="98.4847" y1="186.35" x2="103.1821" y2="186.35" gradientTransform="matrix(1 0 0 -1 0 200)">
	<stop  offset="0" style="stop-color:#3247D5"/>
	<stop  offset="1" style="stop-color:#5742E3"/>
</linearGradient>
<path class="st2" d="M100.8,23.8c1.3,0,2.3-1.1,2.3-2.3l0,0V5.8c0-1.3-1.1-2.3-2.3-2.3c-1.3,0-2.3,1.1-2.3,2.3v15.6
	C98.5,22.8,99.5,23.8,100.8,23.8L100.8,23.8z"/>
<linearGradient id="SVGID_4_" gradientUnits="userSpaceOnUse" x1="155.4" y1="119.8" x2="175.7062" y2="119.8" gradientTransform="matrix(1 0 0 -1 0 200)">
	<stop  offset="0" style="stop-color:#3247D5"/>
	<stop  offset="1" style="stop-color:#5742E3"/>
</linearGradient>
<path class="st3" d="M157.7,77.9c-1.3,0-2.3,1.1-2.3,2.3s1.1,2.3,2.3,2.3h15.6c1.3,0,2.3-1.1,2.3-2.3s-1.1-2.3-2.3-2.3H157.7z"/>
<linearGradient id="SVGID_5_" gradientUnits="userSpaceOnUse" x1="22.2553" y1="119.7" x2="42.5615" y2="119.7" gradientTransform="matrix(1 0 0 -1 0 200)">
	<stop  offset="0" style="stop-color:#3247D5"/>
	<stop  offset="1" style="stop-color:#5742E3"/>
</linearGradient>
<path class="st4" d="M24.6,82.6h15.6c1.3,0,2.3-1.1,2.3-2.3S41.4,78,40.2,78H24.6c-1.3,0-2.3,1.1-2.3,2.3S23.3,82.6,24.6,82.6z"/>
<linearGradient id="SVGID_6_" gradientUnits="userSpaceOnUse" x1="41.7537" y1="168.55" x2="58.6311" y2="168.55" gradientTransform="matrix(1 0 0 -1 0 200)">
	<stop  offset="0" style="stop-color:#3247D5"/>
	<stop  offset="1" style="stop-color:#5742E3"/>
</linearGradient>
<path class="st5" d="M54.6,39.2c0.9,0.9,2.4,0.9,3.3,0c0.9-0.9,0.9-2.4,0-3.3L45.8,23.7c-0.9-0.9-2.4-0.9-3.3,0
	c-0.9,0.9-0.9,2.4,0,3.3L54.6,39.2z"/>
</svg>
