<?xml version="1.0" encoding="utf-8"?>
<!-- Generator: Adobe Illustrator 22.0.1, SVG Export Plug-In . SVG Version: 6.00 Build 0)  -->
<svg version="1.1" id="Layer_1" xmlns="http://www.w3.org/2000/svg" xmlns:xlink="http://www.w3.org/1999/xlink" x="0px" y="0px"
	 viewBox="0 0 200 200" style="enable-background:new 0 0 200 200;" xml:space="preserve">
<style type="text/css">
	.st0{fill:url(#SVGID_1_);}
	.st1{fill:url(#SVGID_2_);}
</style>
<g>
	<g>
		
			<linearGradient id="SVGID_1_" gradientUnits="userSpaceOnUse" x1="20.5" y1="115.8" x2="150.5" y2="115.8" gradientTransform="matrix(1 0 0 -1 0 200)">
			<stop  offset="0" style="stop-color:#3247D5"/>
			<stop  offset="1" style="stop-color:#5742E3"/>
		</linearGradient>
		<path class="st0" d="M85.5,19.2c-35.9,0-65,29.1-65,65s29.1,65,65,65s65-29.1,65-65S121.4,19.2,85.5,19.2z M85.5,25.4
			c19.1,0,37.1,9.3,48.1,25l-7.7,7.7c-1.9-1.1-4-1.8-6.2-1.8c-6.8,0-12.4,5.5-12.4,12.4c0,2.2,0.6,4.4,1.8,6.3L88.7,95.3
			c-3.8-2.3-8.7-2.3-12.5,0L62.1,81.2c1.1-1.9,1.7-4,1.8-6.3c0-6.8-5.5-12.4-12.3-12.4c-5.6,0-10.6,3.8-12,9.3H28
			C33.9,44.8,57.8,25.4,85.5,25.4z M125.8,68.7c0,3.4-2.8,6.2-6.2,6.2s-6.2-2.8-6.2-6.2s2.8-6.2,6.2-6.2S125.8,65.3,125.8,68.7z
			 M88.6,105.9c0,3.4-2.8,6.2-6.2,6.2s-6.2-2.8-6.2-6.2s2.8-6.2,6.2-6.2S88.6,102.5,88.6,105.9z M57.6,74.9c0,3.4-2.8,6.2-6.2,6.2
			s-6.2-2.8-6.2-6.2s2.8-6.2,6.2-6.2S57.6,71.5,57.6,74.9z M114.1,135.7c-8.7,4.9-18.6,7.4-28.6,7.4c-32.5,0-58.8-26.3-58.8-58.8
			c0-2.1,0.1-4.2,0.3-6.3h12.5c1.4,5.5,6.3,9.3,11.9,9.3c2.2,0,4.4-0.6,6.3-1.8l14.1,14.1c-1.1,1.9-1.7,4-1.8,6.3
			c0,6.8,5.5,12.4,12.4,12.4c6.8,0,12.4-5.5,12.4-12.4c0-2.2-0.6-4.4-1.8-6.3l20.3-20.3c1.9,1.1,4,1.7,6.3,1.8
			c6.8,0,12.4-5.5,12.4-12.4c0-2.2-0.6-4.4-1.8-6.3l6.8-6.7C152.7,84.1,142.5,119.9,114.1,135.7z"/>
	</g>
</g>
<g>
	<g>
		
			<linearGradient id="SVGID_2_" gradientUnits="userSpaceOnUse" x1="8.02" y1="100.3275" x2="193.825" y2="100.3275" gradientTransform="matrix(1 0 0 -1 0 200)">
			<stop  offset="0" style="stop-color:#3247D5"/>
			<stop  offset="1" style="stop-color:#5742E3"/>
		</linearGradient>
		<path class="st1" d="M162.9,37.8c5.6,0,10.5-3.8,11.9-9.3h19v-6.2h-19c-1.4-5.5-6.3-9.3-11.9-9.3c-6.8,0-12.4,5.5-12.4,12.4
			c0,2.2,0.6,4.4,1.8,6.3l-5.4,5.4C120.8,3.2,72.2-3.2,38.3,22.8S-2,97.5,24,131.4c24.6,32,69.6,39.8,103.5,17.8l9.3,9.3l4.4,4.4
			l24.9,24.9c6.3,6.3,16.6,6.3,23,0c6.3-6.3,6.3-16.6,0-23L164.2,140l-4.4-4.4l-9.3-9.3c16.6-25.6,16.6-58.5,0-84l6.2-6.2
			C158.6,37.2,160.7,37.8,162.9,37.8z M162.9,19.2c3.4,0,6.2,2.8,6.2,6.2s-2.8,6.2-6.2,6.2s-6.2-2.8-6.2-6.2S159.5,19.2,162.9,19.2z
			 M184.8,169.3c4,3.9,4,10.2,0.2,14.2c-3.9,4-10.2,4-14.2,0.2c-0.1-0.1-0.1-0.1-0.2-0.2l-24.9-24.9l14.2-14.2L184.8,169.3z
			 M155.4,140l-14.2,14.2l-8.6-8.6c0.4-0.3,0.8-0.7,1.3-1c0.4-0.3,0.9-0.8,1.4-1.1c0.7-0.6,1.3-1.1,2-1.7c0.3-0.3,0.7-0.6,1-0.9
			c1.3-1.2,2.5-2.4,3.7-3.7c0.3-0.3,0.6-0.7,0.9-1c0.6-0.7,1.2-1.3,1.7-2c0.4-0.5,0.8-0.9,1.1-1.4c0.3-0.4,0.7-0.8,1-1.3L155.4,140z
			 M143.4,125.6c-1,1.4-2,2.7-3,4c-0.3,0.4-0.6,0.7-1,1.1c-0.9,1.1-1.9,2.2-2.9,3.2c-0.4,0.5-0.9,0.9-1.3,1.3c-1,1-2.1,2-3.2,2.9
			c-0.4,0.3-0.7,0.6-1.1,1c-1.3,1.1-2.6,2.1-4,3c-32.1,22.9-76.6,15.5-99.5-16.6S11.9,49,43.9,26.1s76.6-15.5,99.5,16.6
			C161.2,67.5,161.2,100.8,143.4,125.6z"/>
	</g>
</g>
</svg>
